6 Exam 1 Visualization Process – COMP/STAT112 Notebook
…
dim(fc)

[1] 1430    4

names(fc)

[1] "country"       "food_category" "consumption"   "co2_emmission"

Looking at the top and bottom 22 rows of data, we can determine the units of observation to be combinations of each of 11 food categories and each of 130 countries (determined using the dim() command in the chunk above).

head(fc, 22)

# A tibble: 22 × 4
   country   food_category            consumption co2_emmission
   <chr>     <chr>                          <dbl>         <dbl>
 1 Argentina Pork                           10.5          37.2 
 2 Argentina Poultry                        38.7          41.5 
 3 Argentina Beef                           55.5        1712   
 4 Argentina Lamb & Goat                     1.56         54.6 
 5 Argentina Fish                            4.36          6.96
 6 Argentina Eggs                           11.4          10.5 
 7 Argentina Milk - inc. cheese            195.          278.  
 8 Argentina Wheat and Wheat Products      103.           19.7 
 9 Argentina Rice                            8.77         11.2 
10 Argentina Soybeans                        0             0   
# ℹ 12 more rows

tail(fc, 22)

# A tibble: 22 × 4
   country food_category            consumption co2_emmission
   <chr>   <chr>                          <dbl>         <dbl>
 1 Liberia Pork                            4.01         14.2 
 2 Liberia Poultry                         8.91          9.57
 3 Liberia Beef                            0.78         24.1 
 4 Liberia Lamb & Goat                     0.48         16.8 
 5 Liberia Fish                            4.13          6.59
 6 Liberia Eggs                            2.05          1.88
 7 Liberia Milk - inc. cheese              3.04          4.33
 8 Liberia Wheat and Wheat Products       11.0           2.09
 9 Liberia Rice                           94.8         121.  
10 Liberia Soybeans                        0.63          0.28
# ℹ 12 more rows
…
