12 Wrangling – COMP/STAT112 Notebook
…
# What does this do? It creates and displays two new variables, showing the median percentage of republican votes in each county as well as the total votes all together.
elections_small |>
  summarize(median_repub = median(repub_pct_20), total_votes = sum(total_votes_20))

  median_repub total_votes
1        68.29   157949293

Exercise 8: summarize + group_by demo

Finally, group_by() groups the units of observation or rows of a data frame by a specified set of variables. Alone, this function doesn’t change the appearance of our dataset or seem to do anything at all:

elections_small |>
  group_by(state_name)

# A tibble: 3,109 × 7
# Groups:   state_name [50]
   state_name county_name  total_votes_20 repub_pct_20 dem_pct_20 total_votes_16
   <chr>      <chr>                 <int>        <dbl>      <dbl>          <int>
 1 Alabama    Autauga Cou…          27770         71.4      27.0           24661
 2 Alabama    Baldwin Cou…         109679         76.2      22.4           94090
 3 Alabama    Barbour Cou…          10518         53.4      45.8           10390
 4 Alabama    Bibb County            9595         78.4      20.7            8748
 5 Alabama    Blount Coun…          27588         89.6       9.57          25384
 6 Alabama    Bullock Cou…           4613         24.8      74.7            4701
 7 Alabama    Butler Coun…           9488         57.5      41.8            8685
 8 Alabama    Calhoun Cou…          50983         68.8      29.8           47376
 9 Alabama    Chambers Co…          15284         57.3      41.6           13778
10 Alabama    Cherokee Co…          12301         86.0      13.2           10503
# ℹ 3,099 more rows
# ℹ 1 more variable: dem_pct_16 <dbl>
…
elections_small |>
  group_by(state_name) |>
  class()

[1] "grouped_df" "tbl_df"     "tbl"        "data.frame"

Where it really shines is in partnership with summarize().

# What does this do?
# (What if we didn't use group_by?)
elections_small |>
  group_by(state_name) |>
  summarize(median_repub = median(repub_pct_20), total_votes = sum(total_votes_20))

# A tibble: 50 × 3
   state_name           median_repub total_votes
   <chr>                       <dbl>       <int>
 1 Alabama                      70.6     2323304
 2 Arizona                      57.9     3387326
 3 Arkansas                     72.1     1219069
 4 California                   44.8    17495906
 5 Colorado                     56.2     3256953
 6 Connecticut                  41.0     1824280
 7 Delaware                     47.1      504010
 8 District of Columbia          5.4      344356
 9 Florida                      64.6    11067456
10 Georgia                      68       4997716
# ℹ 40 more rows
…
Before writing any code, translate the given prompts: how many distinct wrangling steps are needed and what verb do we need in each step?

Add each verb one at a time.

Part a

NOTE: Part a is a challenge exercise. If you get really stuck, move on to Part b which is the same overall question, but with hints.

# Sort the *states* from the most to least total votes cast in 2020
elections_small |>
  group_by(state_name) |>
  summarize(votes2020 = sum(total_votes_20)) |>
  arrange(desc(votes2020))

# A tibble: 50 × 2
   state_name     votes2020
   <chr>              <int>
 1 California      17495906
 2 Texas           11317911
 3 Florida         11067456
 4 New York         8616205
 5 Pennsylvania     6925255
 6 Illinois         6038850
 7 Ohio             5922202
 8 Michigan         5539302
 9 North Carolina   5524801
10 Georgia          4997716
# ℹ 40 more rows

# In 2020, what were the total number of votes for the Democratic candidate and the total number of votes for the Republican candidate in each *state*?
elections_small |>
  group_by(state_name) |>
  summarize(repubVotes2020 = sum(repub_pct_20 * total_votes_20), demVotes2020 = sum(dem_pct_20 * total_votes_20))

# A tibble: 50 × 3
   state_name           repubVotes2020 demVotes2020
   <chr>                         <dbl>        <dbl>
 1 Alabama                  144115325.    84966521.
 2 Arizona                  166167238.   167212561.
 3 Arkansas                  76063890.    42391888.
 4 California               600603367.  1110964299.
 5 Colorado                 136462476.   180439477.
 6 Connecticut               71531461.   108067747.
 7 Delaware                  20060118.    29627408.
 8 District of Columbia       1859522.    31732405.
 9 Florida                  566859937.   529712890.
10 Georgia                  246187098.   247365644.
# ℹ 40 more rows

# What states did the Democratic candidate win in 2020?
elections_small |>
  group_by(state_name) |>
  summarize(repubVotes2020 = sum(repub_pct_20 * total_votes_20), demVotes2020 = sum(dem_pct_20 * total_votes_20)) |>
  mutate(dem_win_20 = demVotes2020 > repubVotes2020) |>
  filter(dem_win_20 == TRUE)

# A tibble: 26 × 4
   state_name           repubVotes2020 demVotes2020 dem_win_20
   <chr>                         <dbl>        <dbl> <lgl>     
 1 Arizona                  166167238.   167212561. TRUE      
 2 California               600603367.  1110964299. TRUE      
 3 Colorado                 136462476.   180439477. TRUE      
 4 Connecticut               71531461.   108067747. TRUE      
 5 Delaware                  20060118.    29627408. TRUE      
 6 District of Columbia       1859522.    31732405. TRUE      
 7 Georgia                  246187098.   247365644. TRUE      
 8 Hawaii                    19686564.    36612136. TRUE      
 9 Illinois                 244692971.   347191761. TRUE      
10 Maine                     35989788.    43046558. TRUE      
# ℹ 16 more rows
…
---- Compiling #TidyTuesday Information for 2025-01-28 ----
--- There are 2 files available ---

── Downloading files ───────────────────────────────────────────────────────────

  1 of 2: "water_insecurity_2022.csv"
  2 of 2: "water_insecurity_2023.csv"

#I am interested in finding the total number of people in 2023 who did not have plumbing according to the results collected in the survey.
waterData$water_insecurity_2023 |>
  select(name, total_pop, percent_lacking_plumbing) |>
  mutate(number_wo_plumbing = total_pop * (percent_lacking_plumbing/100)) |>
  arrange(desc(number_wo_plumbing))

# A tibble: 854 × 4
   name                      total_pop percent_lacking_plum…¹ number_wo_plumbing
   <chr>                         <dbl>                  <dbl>              <dbl>
 1 Los Angeles County, Cali…   9663345                 0.0543               5248
 2 Maricopa County, Arizona    4585871                 0.114                5241
 3 Harris County, Texas        4835125                 0.0843               4077
 4 Cook County, Illinois       5087072                 0.0726               3694
 5 Apache County, Arizona        65036                 3.91                 2545
 6 Orange County, California   3135755                 0.0705               2210
 7 Navajo County, Arizona       109175                 1.85                 2019
 8 Riverside County, Califo…   2492442                 0.0759               1892
 9 Miami-Dade County, Flori…   2686867                 0.0680               1826
10 Fairbanks North Star Bor…     94840                 1.88                 1786
# ℹ 844 more rows
# ℹ abbreviated name: ¹​percent_lacking_plumbing
…
