19 Strings – COMP/STAT112 Notebook
…
Use our more familiar wrangling tools to warm up.

# Construct a table that indicates the number of classes offered in each day/time slot
# Print only the 6 most popular time slots
courses |>
  group_by(days, time) |>
  summarize(number = n()) |>
  arrange(desc(number))

`summarise()` has grouped output by 'days'. You can override using the
`.groups` argument.

# A tibble: 106 × 3
# Groups:   days [12]
   days    time             number
   <chr>   <chr>             <int>
 1 "M W F" 10:50 - 11:50 am     76
 2 " T R " 9:40 - 11:10 am      71
 3 "M W F" 9:40 - 10:40 am      68
 4 "M W F" 1:10 - 2:10 pm       66
 5 " T R " 3:00 - 4:30 pm       62
 6 " T R " 1:20 - 2:50 pm       59
 7 "M W F" 2:20 - 3:20 pm       41
 8 "M W F" 12:00 - 1:00 pm      36
 9 "M    " 7:00 - 10:00 pm      23
10 "M W F" 3:30 - 4:30 pm       18
# ℹ 96 more rows
…
Exercise 3: Courses by department

Using courses_clean…

# Identify the 6 departments that offered the most sections
courses_w |>
  group_by(dept) |>
  summarize(sections_n = n()) |>
  arrange(desc(sections_n))

# A tibble: 40 × 2
   dept  sections_n
   <chr>      <int>
 1 SPAN          45
 2 BIOL          44
 3 ENVI          38
 4 PSYC          37
 5 CHEM          33
 6 COMP          31
 7 ENGL          30
 8 ECON          29
 9 POLI          27
10 FREN          26
# ℹ 30 more rows

# Identify the 6 departments with the longest average course titles
courses_w |>
  group_by(dept) |>
  summarize(average_name_length = mean(str_length(name))) |>
  arrange(desc(average_name_length))

# A tibble: 40 × 2
   dept  average_name_length
   <chr>               <dbl>
 1 WGSS                 46.3
 2 INTL                 41.4
 3 EDUC                 39.4
 4 MCST                 39.4
 5 POLI                 37.4
 6 AMST                 37.3
 7 ASIA                 36.8
 8 SOCI                 36.2
 9 ENGL                 35.7
10 LATI                 34.4
# ℹ 30 more rows
…
Exercise 6: Enrollment & departments

Explore enrollments by department. You decide what research questions to focus on. Use both visual and numerical summaries.

I am curious about which departments have the most full classes (100% enrollment). Looking at the numerical summary and the graph generated in the code below, I can see that math classes have the highest percentage of spots filled, with an average enrollment of over 100% of what is allowed! Only ~50% of classes in the Chinese department are filled, making it the least percent full department at Macalester.

enrollments |>
  mutate(percent_full = as.numeric(enroll)/as.numeric(max)) |>
  group_by(dept) |>
  summarize(avg_percent_full = mean(percent_full)) |>
  arrange(desc(avg_percent_full))

# A tibble: 38 × 2
   dept  avg_percent_full
   <chr>            <dbl>
 1 MATH             1.01 
 2 PSYC             0.984
 3 INTL             0.938
 4 BIOL             0.935
 5 STAT             0.934
 6 ART              0.885
 7 COMP             0.881
 8 HIST             0.880
 9 EDUC             0.875
10 ENGL             0.873
# ℹ 28 more rows
…
I am also curious about how many individual students each professor teaches each semester. The data does not show us students taking more than one class under the same professor, so we will have to assume that that does not happen when we conduct the analysis below.

#We are interested in the `instructor` and `enroll` variable in this section.

enrollments |>
  group_by(instructor) |>
  summarize(students_per_instructor = sum(enroll)) |>
  arrange(desc(students_per_instructor))

# A tibble: 249 × 2
   instructor        students_per_instructor
   <chr>                               <dbl>
 1 Kiarina Kordela                       126
 2 Christie Manning                      116
 3 Tina Kruse                            116
 4 Serdar Yalçin                         107
 5 James Doyle                           104
 6 Daylanne English                      100
 7 Chris Wells                            98
 8 Jenna Rice Rahaim                      97
 9 Amin Alhashim                          92
10 Mary Heskel                            92
# ℹ 239 more rows

enrollments |>
  group_by(instructor) |>
  summarize(students_per_instructor = sum(enroll)) |>
  arrange(desc(students_per_instructor))

# A tibble: 249 × 2
   instructor        students_per_instructor
   <chr>                               <dbl>
 1 Kiarina Kordela                       126
 2 Christie Manning                      116
 3 Tina Kruse                            116
 4 Serdar Yalçin                         107
 5 James Doyle                           104
 6 Daylanne English                      100
 7 Chris Wells                            98
 8 Jenna Rice Rahaim                      97
 9 Amin Alhashim                          92
10 Mary Heskel                            92
# ℹ 239 more rows
…
enrollments |>
  group_by(dept, instructor) |>
  summarize(enrollment = sum(enroll))

`summarise()` has grouped output by 'dept'. You can override using the
`.groups` argument.

# A tibble: 346 × 3
# Groups:   dept [38]
   dept  instructor             enrollment
   <chr> <chr>                       <dbl>
 1 AMST  Alicia Muñoz                   20
 2 AMST  Amy Sullivan                   25
 3 AMST  Brian Lozenski                 28
 4 AMST  Daylanne English               50
 5 AMST  Duchess Harris                 34
 6 AMST  Ebony Aya                      11
 7 AMST  Jake Nagasawa                  34
 8 AMST  Karin Aguilar-San Juan         25
 9 AMST  Katrina Phillips               18
10 AMST  Kirisitina Sailiata            31
# ℹ 336 more rows

Optional extra practice

# Make a bar plot showing the number of night courses by day of the week
# Use courses_clean
# I used a different data set for my courses clean data

courses_w |>
  select(time) |>
  group_by(time) |>
  summarize(n())

# A tibble: 55 × 2
   time               `n()`
   <chr>              <int>
 1 ""                     1
 2 "10:10 - 11:10 am"     5
 3 "10:30 - 11:10 am"     1
 4 "10:50 - 11:50 am"    77
 5 "10:50 - 12:20 pm"     1
 6 "12:00 - 1:00 pm"     38
 7 "1:10 - 2:10 pm"      69
 8 "1:10 - 3:10 pm"       2
 9 "1:10 - 4:20 pm"       3
10 "1:10 - 4:30 pm"       3
# ℹ 45 more rows
…
