14 Dates – COMP/STAT112 Notebook
…
Exercise 3: Arranging, Counting, & Grouping by Multiple Variables

We’ve done examples where we need to filter() by more than one variable, or select() more than one variable. Use your intuition for how we can arrange(), count(), and group_by() more than one variable.

# Change this code to sort the penguins by species, and then island name
# NOTE: The first row should be an Adelie penguin living on Biscoe island
penguins |> 
  arrange(species) |>
  arrange(island)

# A tibble: 344 × 8
   species island bill_length_mm bill_depth_mm flipper_length_mm body_mass_g
   <chr>   <chr>           <dbl>         <dbl>             <dbl>       <dbl>
 1 Adelie  Biscoe           37.8          18.3               174        3400
 2 Adelie  Biscoe           37.7          18.7               180        3600
 3 Adelie  Biscoe           35.9          19.2               189        3800
 4 Adelie  Biscoe           38.2          18.1               185        3950
 5 Adelie  Biscoe           38.8          17.2               180        3800
 6 Adelie  Biscoe           35.3          18.9               187        3800
 7 Adelie  Biscoe           40.6          18.6               183        3550
 8 Adelie  Biscoe           40.5          17.9               187        3200
 9 Adelie  Biscoe           37.9          18.6               172        3150
10 Adelie  Biscoe           40.5          18.9               180        3950
# ℹ 334 more rows
# ℹ 2 more variables: sex <chr>, year <dbl>
…
# How many total births were there in this time period?
Birthdays |>
  summarize(sum(births))

  sum(births)
1    70486538

# How many total births were there per state in this time period, sorted from low to high?
Birthdays |>
  group_by(state) |>
  mutate(births_total = (sum(births))) |>
  filter(day == 1, year == 1969, month == 1) |>
  arrange(births_total)

# A tibble: 51 × 8
# Groups:   state [51]
   state  year month   day date                wday  births births_total
   <chr> <int> <int> <int> <dttm>              <ord>  <int>        <int>
 1 VT     1969     1     1 1969-01-01 00:00:00 Wed       20       147886
 2 WY     1969     1     1 1969-01-01 00:00:00 Wed       16       154019
 3 AK     1969     1     1 1969-01-01 00:00:00 Wed       14       185385
 4 DE     1969     1     1 1969-01-01 00:00:00 Wed       32       188705
 5 SD     1969     1     1 1969-01-01 00:00:00 Wed       22       235734
 6 ND     1969     1     1 1969-01-01 00:00:00 Wed       30       238696
 7 NV     1969     1     1 1969-01-01 00:00:00 Wed       14       241470
 8 MT     1969     1     1 1969-01-01 00:00:00 Wed       24       253884
 9 NH     1969     1     1 1969-01-01 00:00:00 Wed       34       264984
10 RI     1969     1     1 1969-01-01 00:00:00 Wed       52       265038
# ℹ 41 more rows
…
